(module "test" (layer F.Cu) (tedit 55A681D4)
          (fp_text reference G*** (at 0 0) (layer F.SilkS) hide
            (effects (font (thickness 0.3)))
          )
          (fp_text value "test" (at 0 -2.54) (layer F.SilkS) hide
            (effects (font (thickness 0.3)))
          )
(pad 1 smd rect (at 14.90 15.30) (size 0.20 0.20) (layers F.Cu))
(fp_line (start 14.90 15.30) (end 14.90 -14.90) (layer F.Cu) (width 0.20))
(fp_line (start 14.90 -14.90) (end -14.90 -14.90) (layer F.Cu) (width 0.20))
(fp_line (start -14.90 -14.90) (end -14.90 14.90) (layer F.Cu) (width 0.20))
(fp_line (start -14.90 14.90) (end 14.50 14.90) (layer F.Cu) (width 0.20))
(fp_line (start 14.50 14.90) (end 14.50 -14.50) (layer F.Cu) (width 0.20))
(fp_line (start 14.50 -14.50) (end -14.50 -14.50) (layer F.Cu) (width 0.20))
(fp_line (start -14.50 -14.50) (end -14.50 14.50) (layer F.Cu) (width 0.20))
(fp_line (start -14.50 14.50) (end 14.10 14.50) (layer F.Cu) (width 0.20))
(fp_line (start 14.10 14.50) (end 14.10 -14.10) (layer F.Cu) (width 0.20))
(fp_line (start 14.10 -14.10) (end -14.10 -14.10) (layer F.Cu) (width 0.20))
(fp_line (start -14.10 -14.10) (end -14.10 14.10) (layer F.Cu) (width 0.20))
(fp_line (start -14.10 14.10) (end 13.70 14.10) (layer F.Cu) (width 0.20))
(fp_line (start 13.70 14.10) (end 13.70 -13.70) (layer F.Cu) (width 0.20))
(fp_line (start 13.70 -13.70) (end -13.70 -13.70) (layer F.Cu) (width 0.20))
(fp_line (start -13.70 -13.70) (end -13.70 13.70) (layer F.Cu) (width 0.20))
(fp_line (start -13.70 13.70) (end 13.30 13.70) (layer F.Cu) (width 0.20))
(fp_line (start 13.30 13.70) (end 13.30 -13.30) (layer F.Cu) (width 0.20))
(fp_line (start 13.30 -13.30) (end -13.30 -13.30) (layer F.Cu) (width 0.20))
(fp_line (start -13.30 -13.30) (end -13.30 13.30) (layer F.Cu) (width 0.20))
(fp_line (start -13.30 13.30) (end 12.90 13.30) (layer F.Cu) (width 0.20))
(fp_line (start 12.90 13.30) (end 12.90 -12.90) (layer F.Cu) (width 0.20))
(fp_line (start 12.90 -12.90) (end -12.90 -12.90) (layer F.Cu) (width 0.20))
(fp_line (start -12.90 -12.90) (end -12.90 12.90) (layer F.Cu) (width 0.20))
(fp_line (start -12.90 12.90) (end 12.50 12.90) (layer F.Cu) (width 0.20))
(fp_line (start 12.50 12.90) (end 12.50 -12.50) (layer F.Cu) (width 0.20))
(fp_line (start 12.50 -12.50) (end -12.50 -12.50) (layer F.Cu) (width 0.20))
(fp_line (start -12.50 -12.50) (end -12.50 12.50) (layer F.Cu) (width 0.20))
(fp_line (start -12.50 12.50) (end 12.10 12.50) (layer F.Cu) (width 0.20))
(fp_line (start 12.10 12.50) (end 12.10 -12.10) (layer F.Cu) (width 0.20))
(fp_line (start 12.10 -12.10) (end -12.10 -12.10) (layer F.Cu) (width 0.20))
(fp_line (start -12.10 -12.10) (end -12.10 12.10) (layer F.Cu) (width 0.20))
(fp_line (start -12.10 12.10) (end 11.70 12.10) (layer F.Cu) (width 0.20))
(fp_line (start 11.70 12.10) (end 11.70 -11.70) (layer F.Cu) (width 0.20))
(fp_line (start 11.70 -11.70) (end -11.70 -11.70) (layer F.Cu) (width 0.20))
(fp_line (start -11.70 -11.70) (end -11.70 11.70) (layer F.Cu) (width 0.20))
(fp_line (start -11.70 11.70) (end 11.30 11.70) (layer F.Cu) (width 0.20))
(fp_line (start 11.30 11.70) (end 11.30 -11.30) (layer F.Cu) (width 0.20))
(fp_line (start 11.30 -11.30) (end -11.30 -11.30) (layer F.Cu) (width 0.20))
(fp_line (start -11.30 -11.30) (end -11.30 11.30) (layer F.Cu) (width 0.20))
(fp_line (start -11.30 11.30) (end 10.90 11.30) (layer F.Cu) (width 0.20))
(fp_line (start 10.90 11.30) (end 10.90 -10.90) (layer F.Cu) (width 0.20))
(fp_line (start 10.90 -10.90) (end -10.90 -10.90) (layer F.Cu) (width 0.20))
(fp_line (start -10.90 -10.90) (end -10.90 10.90) (layer F.Cu) (width 0.20))
(fp_line (start -10.90 10.90) (end 10.50 10.90) (layer F.Cu) (width 0.20))
(fp_line (start 10.50 10.90) (end 10.50 -10.50) (layer F.Cu) (width 0.20))
(fp_line (start 10.50 -10.50) (end -10.50 -10.50) (layer F.Cu) (width 0.20))
(fp_line (start -10.50 -10.50) (end -10.50 10.50) (layer F.Cu) (width 0.20))
(fp_line (start -10.50 10.50) (end 10.10 10.50) (layer F.Cu) (width 0.20))
(fp_line (start 10.10 10.50) (end 10.10 -10.10) (layer F.Cu) (width 0.20))
(fp_line (start 10.10 -10.10) (end -10.10 -10.10) (layer F.Cu) (width 0.20))
(fp_line (start -10.10 -10.10) (end -10.10 10.10) (layer F.Cu) (width 0.20))
(fp_line (start -10.10 10.10) (end 9.70 10.10) (layer F.Cu) (width 0.20))
(fp_line (start 9.70 10.10) (end 9.70 -9.70) (layer F.Cu) (width 0.20))
(fp_line (start 9.70 -9.70) (end -9.70 -9.70) (layer F.Cu) (width 0.20))
(fp_line (start -9.70 -9.70) (end -9.70 9.70) (layer F.Cu) (width 0.20))
(fp_line (start -9.70 9.70) (end 9.30 9.70) (layer F.Cu) (width 0.20))
(fp_line (start 9.30 9.70) (end 9.30 -9.30) (layer F.Cu) (width 0.20))
(fp_line (start 9.30 -9.30) (end -9.30 -9.30) (layer F.Cu) (width 0.20))
(fp_line (start -9.30 -9.30) (end -9.30 9.30) (layer F.Cu) (width 0.20))
(fp_line (start -9.30 9.30) (end 8.90 9.30) (layer F.Cu) (width 0.20))
(fp_line (start 8.90 9.30) (end 8.90 -8.90) (layer F.Cu) (width 0.20))
(fp_line (start 8.90 -8.90) (end -8.90 -8.90) (layer F.Cu) (width 0.20))
(fp_line (start -8.90 -8.90) (end -8.90 8.90) (layer F.Cu) (width 0.20))
(fp_line (start -8.90 8.90) (end 8.50 8.90) (layer F.Cu) (width 0.20))
(fp_line (start 8.50 8.90) (end 8.50 -8.50) (layer F.Cu) (width 0.20))
(fp_line (start 8.50 -8.50) (end -8.50 -8.50) (layer F.Cu) (width 0.20))
(fp_line (start -8.50 -8.50) (end -8.50 8.50) (layer F.Cu) (width 0.20))
(fp_line (start -8.50 8.50) (end 8.10 8.50) (layer F.Cu) (width 0.20))
(fp_line (start 8.10 8.50) (end 8.10 -8.10) (layer F.Cu) (width 0.20))
(fp_line (start 8.10 -8.10) (end -8.10 -8.10) (layer F.Cu) (width 0.20))
(fp_line (start -8.10 -8.10) (end -8.10 8.10) (layer F.Cu) (width 0.20))
(fp_line (start -8.10 8.10) (end 7.70 8.10) (layer F.Cu) (width 0.20))
(fp_line (start 7.70 8.10) (end 7.70 -7.70) (layer F.Cu) (width 0.20))
(fp_line (start 7.70 -7.70) (end -7.70 -7.70) (layer F.Cu) (width 0.20))
(fp_line (start -7.70 -7.70) (end -7.70 7.70) (layer F.Cu) (width 0.20))
(fp_line (start -7.70 7.70) (end 7.30 7.70) (layer F.Cu) (width 0.20))
(fp_line (start 7.30 7.70) (end 7.30 -7.30) (layer F.Cu) (width 0.20))
(fp_line (start 7.30 -7.30) (end -7.30 -7.30) (layer F.Cu) (width 0.20))
(fp_line (start -7.30 -7.30) (end -7.30 7.30) (layer F.Cu) (width 0.20))
(fp_line (start -7.30 7.30) (end 6.90 7.30) (layer F.Cu) (width 0.20))
(fp_line (start 6.90 7.30) (end 6.90 -6.90) (layer F.Cu) (width 0.20))
(fp_line (start 6.90 -6.90) (end -6.90 -6.90) (layer F.Cu) (width 0.20))
(fp_line (start -6.90 -6.90) (end -6.90 6.90) (layer F.Cu) (width 0.20))
(fp_line (start -6.90 6.90) (end 6.50 6.90) (layer F.Cu) (width 0.20))
(fp_line (start 6.50 6.90) (end 6.50 -6.50) (layer F.Cu) (width 0.20))
(fp_line (start 6.50 -6.50) (end -6.50 -6.50) (layer F.Cu) (width 0.20))
(fp_line (start -6.50 -6.50) (end -6.50 6.50) (layer F.Cu) (width 0.20))
(fp_line (start -6.50 6.50) (end 6.10 6.50) (layer F.Cu) (width 0.20))
(fp_line (start 6.10 6.50) (end 6.10 -6.10) (layer F.Cu) (width 0.20))
(fp_line (start 6.10 -6.10) (end -6.10 -6.10) (layer F.Cu) (width 0.20))
(fp_line (start -6.10 -6.10) (end -6.10 6.10) (layer F.Cu) (width 0.20))
(fp_line (start -6.10 6.10) (end 5.70 6.10) (layer F.Cu) (width 0.20))
(fp_line (start 5.70 6.10) (end 5.70 -5.70) (layer F.Cu) (width 0.20))
(fp_line (start 5.70 -5.70) (end -5.70 -5.70) (layer F.Cu) (width 0.20))
(fp_line (start -5.70 -5.70) (end -5.70 5.70) (layer F.Cu) (width 0.20))
(fp_line (start -5.70 5.70) (end 5.30 5.70) (layer F.Cu) (width 0.20))
(fp_line (start 5.30 5.70) (end 5.30 -5.30) (layer F.Cu) (width 0.20))
(fp_line (start 5.30 -5.30) (end -5.30 -5.30) (layer F.Cu) (width 0.20))
(fp_line (start -5.30 -5.30) (end -5.30 5.30) (layer F.Cu) (width 0.20))
(fp_line (start -5.30 5.30) (end 4.90 5.30) (layer F.Cu) (width 0.20))
(fp_line (start 4.90 5.30) (end 4.90 -4.90) (layer F.Cu) (width 0.20))
(fp_line (start 4.90 -4.90) (end -4.90 -4.90) (layer F.Cu) (width 0.20))
(fp_line (start -4.90 -4.90) (end -4.90 4.90) (layer F.Cu) (width 0.20))
(fp_line (start -4.90 4.90) (end 4.50 4.90) (layer F.Cu) (width 0.20))
(fp_line (start 4.50 4.90) (end 4.50 -4.50) (layer F.Cu) (width 0.20))
(fp_line (start 4.50 -4.50) (end -4.50 -4.50) (layer F.Cu) (width 0.20))
(fp_line (start -4.50 -4.50) (end -4.50 4.50) (layer F.Cu) (width 0.20))
(fp_line (start -4.50 4.50) (end 4.10 4.50) (layer F.Cu) (width 0.20))
(fp_line (start 4.10 4.50) (end 4.10 -4.10) (layer F.Cu) (width 0.20))
(fp_line (start 4.10 -4.10) (end -4.10 -4.10) (layer F.Cu) (width 0.20))
(fp_line (start -4.10 -4.10) (end -4.10 4.10) (layer F.Cu) (width 0.20))
(fp_line (start -4.10 4.10) (end 3.70 4.10) (layer F.Cu) (width 0.20))
(fp_line (start 3.70 4.10) (end 3.70 -3.70) (layer F.Cu) (width 0.20))
(fp_line (start 3.70 -3.70) (end -3.70 -3.70) (layer F.Cu) (width 0.20))
(fp_line (start -3.70 -3.70) (end -3.70 3.70) (layer F.Cu) (width 0.20))
(fp_line (start -3.70 3.70) (end 3.30 3.70) (layer F.Cu) (width 0.20))
(fp_line (start 3.30 3.70) (end 3.30 -3.30) (layer F.Cu) (width 0.20))
(fp_line (start 3.30 -3.30) (end -3.30 -3.30) (layer F.Cu) (width 0.20))
(fp_line (start -3.30 -3.30) (end -3.30 3.30) (layer F.Cu) (width 0.20))
(fp_line (start -3.30 3.30) (end 2.90 3.30) (layer F.Cu) (width 0.20))
(fp_line (start 2.90 3.30) (end 2.90 -2.90) (layer F.Cu) (width 0.20))
(fp_line (start 2.90 -2.90) (end -2.90 -2.90) (layer F.Cu) (width 0.20))
(fp_line (start -2.90 -2.90) (end -2.90 2.90) (layer F.Cu) (width 0.20))
(fp_line (start -2.90 2.90) (end 2.50 2.90) (layer F.Cu) (width 0.20))
(fp_line (start 2.50 2.90) (end 2.50 -2.50) (layer F.Cu) (width 0.20))
(fp_line (start 2.50 -2.50) (end -2.50 -2.50) (layer F.Cu) (width 0.20))
(fp_line (start -2.50 -2.50) (end -2.50 2.50) (layer F.Cu) (width 0.20))
(fp_line (start -2.50 2.50) (end 2.10 2.50) (layer F.Cu) (width 0.20))
(fp_line (start 2.10 2.50) (end 2.10 -2.10) (layer F.Cu) (width 0.20))
(fp_line (start 2.10 -2.10) (end -2.10 -2.10) (layer F.Cu) (width 0.20))
(fp_line (start -2.10 -2.10) (end -2.10 2.10) (layer F.Cu) (width 0.20))
(fp_line (start -2.10 2.10) (end 1.70 2.10) (layer F.Cu) (width 0.20))
(fp_line (start 1.70 2.10) (end 1.70 -1.70) (layer F.Cu) (width 0.20))
(fp_line (start 1.70 -1.70) (end -1.70 -1.70) (layer F.Cu) (width 0.20))
(fp_line (start -1.70 -1.70) (end -1.70 1.70) (layer F.Cu) (width 0.20))
(fp_line (start -1.70 1.70) (end 1.30 1.70) (layer F.Cu) (width 0.20))
(fp_line (start 1.30 1.70) (end 1.30 -1.30) (layer F.Cu) (width 0.20))
(fp_line (start 1.30 -1.30) (end -1.30 -1.30) (layer F.Cu) (width 0.20))
(fp_line (start -1.30 -1.30) (end -1.30 1.30) (layer F.Cu) (width 0.20))
(fp_line (start -1.30 1.30) (end 0.90 1.30) (layer F.Cu) (width 0.20))
(fp_line (start 0.90 1.30) (end 0.90 -0.90) (layer F.Cu) (width 0.20))
(fp_line (start 0.90 -0.90) (end -0.90 -0.90) (layer F.Cu) (width 0.20))
(fp_line (start -0.90 -0.90) (end -0.90 0.90) (layer F.Cu) (width 0.20))
(fp_line (start -0.90 0.90) (end 0.50 0.90) (layer F.Cu) (width 0.20))
(fp_line (start 0.50 0.90) (end 0.50 -0.50) (layer F.Cu) (width 0.20))
(fp_line (start 0.50 -0.50) (end -0.50 -0.50) (layer F.Cu) (width 0.20))
(fp_line (start -0.50 -0.50) (end -0.50 0.50) (layer F.Cu) (width 0.20))
(fp_line (start -0.50 0.50) (end 0.10 0.50) (layer F.Cu) (width 0.20))
 (pad "" thru_hole circle (at 0.10 0.50) (size 0.40 0.40) (drill 0.30) (layers *.Cu *.Mask F.SilkS)
        (zone_connect 2))
(fp_line (start 0.10 0.50) (end 0.10 -0.50) (layer B.Cu) (width 0.20))
(fp_line (start 0.10 -0.50) (end -0.50 -0.50) (layer B.Cu) (width 0.20))
(fp_line (start -0.50 -0.50) (end -0.50 0.90) (layer B.Cu) (width 0.20))
(fp_line (start -0.50 0.90) (end 0.50 0.90) (layer B.Cu) (width 0.20))
(fp_line (start 0.50 0.90) (end 0.50 -0.90) (layer B.Cu) (width 0.20))
(fp_line (start 0.50 -0.90) (end -0.90 -0.90) (layer B.Cu) (width 0.20))
(fp_line (start -0.90 -0.90) (end -0.90 1.30) (layer B.Cu) (width 0.20))
(fp_line (start -0.90 1.30) (end 0.90 1.30) (layer B.Cu) (width 0.20))
(fp_line (start 0.90 1.30) (end 0.90 -1.30) (layer B.Cu) (width 0.20))
(fp_line (start 0.90 -1.30) (end -1.30 -1.30) (layer B.Cu) (width 0.20))
(fp_line (start -1.30 -1.30) (end -1.30 1.70) (layer B.Cu) (width 0.20))
(fp_line (start -1.30 1.70) (end 1.30 1.70) (layer B.Cu) (width 0.20))
(fp_line (start 1.30 1.70) (end 1.30 -1.70) (layer B.Cu) (width 0.20))
(fp_line (start 1.30 -1.70) (end -1.70 -1.70) (layer B.Cu) (width 0.20))
(fp_line (start -1.70 -1.70) (end -1.70 2.10) (layer B.Cu) (width 0.20))
(fp_line (start -1.70 2.10) (end 1.70 2.10) (layer B.Cu) (width 0.20))
(fp_line (start 1.70 2.10) (end 1.70 -2.10) (layer B.Cu) (width 0.20))
(fp_line (start 1.70 -2.10) (end -2.10 -2.10) (layer B.Cu) (width 0.20))
(fp_line (start -2.10 -2.10) (end -2.10 2.50) (layer B.Cu) (width 0.20))
(fp_line (start -2.10 2.50) (end 2.10 2.50) (layer B.Cu) (width 0.20))
(fp_line (start 2.10 2.50) (end 2.10 -2.50) (layer B.Cu) (width 0.20))
(fp_line (start 2.10 -2.50) (end -2.50 -2.50) (layer B.Cu) (width 0.20))
(fp_line (start -2.50 -2.50) (end -2.50 2.90) (layer B.Cu) (width 0.20))
(fp_line (start -2.50 2.90) (end 2.50 2.90) (layer B.Cu) (width 0.20))
(fp_line (start 2.50 2.90) (end 2.50 -2.90) (layer B.Cu) (width 0.20))
(fp_line (start 2.50 -2.90) (end -2.90 -2.90) (layer B.Cu) (width 0.20))
(fp_line (start -2.90 -2.90) (end -2.90 3.30) (layer B.Cu) (width 0.20))
(fp_line (start -2.90 3.30) (end 2.90 3.30) (layer B.Cu) (width 0.20))
(fp_line (start 2.90 3.30) (end 2.90 -3.30) (layer B.Cu) (width 0.20))
(fp_line (start 2.90 -3.30) (end -3.30 -3.30) (layer B.Cu) (width 0.20))
(fp_line (start -3.30 -3.30) (end -3.30 3.70) (layer B.Cu) (width 0.20))
(fp_line (start -3.30 3.70) (end 3.30 3.70) (layer B.Cu) (width 0.20))
(fp_line (start 3.30 3.70) (end 3.30 -3.70) (layer B.Cu) (width 0.20))
(fp_line (start 3.30 -3.70) (end -3.70 -3.70) (layer B.Cu) (width 0.20))
(fp_line (start -3.70 -3.70) (end -3.70 4.10) (layer B.Cu) (width 0.20))
(fp_line (start -3.70 4.10) (end 3.70 4.10) (layer B.Cu) (width 0.20))
(fp_line (start 3.70 4.10) (end 3.70 -4.10) (layer B.Cu) (width 0.20))
(fp_line (start 3.70 -4.10) (end -4.10 -4.10) (layer B.Cu) (width 0.20))
(fp_line (start -4.10 -4.10) (end -4.10 4.50) (layer B.Cu) (width 0.20))
(fp_line (start -4.10 4.50) (end 4.10 4.50) (layer B.Cu) (width 0.20))
(fp_line (start 4.10 4.50) (end 4.10 -4.50) (layer B.Cu) (width 0.20))
(fp_line (start 4.10 -4.50) (end -4.50 -4.50) (layer B.Cu) (width 0.20))
(fp_line (start -4.50 -4.50) (end -4.50 4.90) (layer B.Cu) (width 0.20))
(fp_line (start -4.50 4.90) (end 4.50 4.90) (layer B.Cu) (width 0.20))
(fp_line (start 4.50 4.90) (end 4.50 -4.90) (layer B.Cu) (width 0.20))
(fp_line (start 4.50 -4.90) (end -4.90 -4.90) (layer B.Cu) (width 0.20))
(fp_line (start -4.90 -4.90) (end -4.90 5.30) (layer B.Cu) (width 0.20))
(fp_line (start -4.90 5.30) (end 4.90 5.30) (layer B.Cu) (width 0.20))
(fp_line (start 4.90 5.30) (end 4.90 -5.30) (layer B.Cu) (width 0.20))
(fp_line (start 4.90 -5.30) (end -5.30 -5.30) (layer B.Cu) (width 0.20))
(fp_line (start -5.30 -5.30) (end -5.30 5.70) (layer B.Cu) (width 0.20))
(fp_line (start -5.30 5.70) (end 5.30 5.70) (layer B.Cu) (width 0.20))
(fp_line (start 5.30 5.70) (end 5.30 -5.70) (layer B.Cu) (width 0.20))
(fp_line (start 5.30 -5.70) (end -5.70 -5.70) (layer B.Cu) (width 0.20))
(fp_line (start -5.70 -5.70) (end -5.70 6.10) (layer B.Cu) (width 0.20))
(fp_line (start -5.70 6.10) (end 5.70 6.10) (layer B.Cu) (width 0.20))
(fp_line (start 5.70 6.10) (end 5.70 -6.10) (layer B.Cu) (width 0.20))
(fp_line (start 5.70 -6.10) (end -6.10 -6.10) (layer B.Cu) (width 0.20))
(fp_line (start -6.10 -6.10) (end -6.10 6.50) (layer B.Cu) (width 0.20))
(fp_line (start -6.10 6.50) (end 6.10 6.50) (layer B.Cu) (width 0.20))
(fp_line (start 6.10 6.50) (end 6.10 -6.50) (layer B.Cu) (width 0.20))
(fp_line (start 6.10 -6.50) (end -6.50 -6.50) (layer B.Cu) (width 0.20))
(fp_line (start -6.50 -6.50) (end -6.50 6.90) (layer B.Cu) (width 0.20))
(fp_line (start -6.50 6.90) (end 6.50 6.90) (layer B.Cu) (width 0.20))
(fp_line (start 6.50 6.90) (end 6.50 -6.90) (layer B.Cu) (width 0.20))
(fp_line (start 6.50 -6.90) (end -6.90 -6.90) (layer B.Cu) (width 0.20))
(fp_line (start -6.90 -6.90) (end -6.90 7.30) (layer B.Cu) (width 0.20))
(fp_line (start -6.90 7.30) (end 6.90 7.30) (layer B.Cu) (width 0.20))
(fp_line (start 6.90 7.30) (end 6.90 -7.30) (layer B.Cu) (width 0.20))
(fp_line (start 6.90 -7.30) (end -7.30 -7.30) (layer B.Cu) (width 0.20))
(fp_line (start -7.30 -7.30) (end -7.30 7.70) (layer B.Cu) (width 0.20))
(fp_line (start -7.30 7.70) (end 7.30 7.70) (layer B.Cu) (width 0.20))
(fp_line (start 7.30 7.70) (end 7.30 -7.70) (layer B.Cu) (width 0.20))
(fp_line (start 7.30 -7.70) (end -7.70 -7.70) (layer B.Cu) (width 0.20))
(fp_line (start -7.70 -7.70) (end -7.70 8.10) (layer B.Cu) (width 0.20))
(fp_line (start -7.70 8.10) (end 7.70 8.10) (layer B.Cu) (width 0.20))
(fp_line (start 7.70 8.10) (end 7.70 -8.10) (layer B.Cu) (width 0.20))
(fp_line (start 7.70 -8.10) (end -8.10 -8.10) (layer B.Cu) (width 0.20))
(fp_line (start -8.10 -8.10) (end -8.10 8.50) (layer B.Cu) (width 0.20))
(fp_line (start -8.10 8.50) (end 8.10 8.50) (layer B.Cu) (width 0.20))
(fp_line (start 8.10 8.50) (end 8.10 -8.50) (layer B.Cu) (width 0.20))
(fp_line (start 8.10 -8.50) (end -8.50 -8.50) (layer B.Cu) (width 0.20))
(fp_line (start -8.50 -8.50) (end -8.50 8.90) (layer B.Cu) (width 0.20))
(fp_line (start -8.50 8.90) (end 8.50 8.90) (layer B.Cu) (width 0.20))
(fp_line (start 8.50 8.90) (end 8.50 -8.90) (layer B.Cu) (width 0.20))
(fp_line (start 8.50 -8.90) (end -8.90 -8.90) (layer B.Cu) (width 0.20))
(fp_line (start -8.90 -8.90) (end -8.90 9.30) (layer B.Cu) (width 0.20))
(fp_line (start -8.90 9.30) (end 8.90 9.30) (layer B.Cu) (width 0.20))
(fp_line (start 8.90 9.30) (end 8.90 -9.30) (layer B.Cu) (width 0.20))
(fp_line (start 8.90 -9.30) (end -9.30 -9.30) (layer B.Cu) (width 0.20))
(fp_line (start -9.30 -9.30) (end -9.30 9.70) (layer B.Cu) (width 0.20))
(fp_line (start -9.30 9.70) (end 9.30 9.70) (layer B.Cu) (width 0.20))
(fp_line (start 9.30 9.70) (end 9.30 -9.70) (layer B.Cu) (width 0.20))
(fp_line (start 9.30 -9.70) (end -9.70 -9.70) (layer B.Cu) (width 0.20))
(fp_line (start -9.70 -9.70) (end -9.70 10.10) (layer B.Cu) (width 0.20))
(fp_line (start -9.70 10.10) (end 9.70 10.10) (layer B.Cu) (width 0.20))
(fp_line (start 9.70 10.10) (end 9.70 -10.10) (layer B.Cu) (width 0.20))
(fp_line (start 9.70 -10.10) (end -10.10 -10.10) (layer B.Cu) (width 0.20))
(fp_line (start -10.10 -10.10) (end -10.10 10.50) (layer B.Cu) (width 0.20))
(fp_line (start -10.10 10.50) (end 10.10 10.50) (layer B.Cu) (width 0.20))
(fp_line (start 10.10 10.50) (end 10.10 -10.50) (layer B.Cu) (width 0.20))
(fp_line (start 10.10 -10.50) (end -10.50 -10.50) (layer B.Cu) (width 0.20))
(fp_line (start -10.50 -10.50) (end -10.50 10.90) (layer B.Cu) (width 0.20))
(fp_line (start -10.50 10.90) (end 10.50 10.90) (layer B.Cu) (width 0.20))
(fp_line (start 10.50 10.90) (end 10.50 -10.90) (layer B.Cu) (width 0.20))
(fp_line (start 10.50 -10.90) (end -10.90 -10.90) (layer B.Cu) (width 0.20))
(fp_line (start -10.90 -10.90) (end -10.90 11.30) (layer B.Cu) (width 0.20))
(fp_line (start -10.90 11.30) (end 10.90 11.30) (layer B.Cu) (width 0.20))
(fp_line (start 10.90 11.30) (end 10.90 -11.30) (layer B.Cu) (width 0.20))
(fp_line (start 10.90 -11.30) (end -11.30 -11.30) (layer B.Cu) (width 0.20))
(fp_line (start -11.30 -11.30) (end -11.30 11.70) (layer B.Cu) (width 0.20))
(fp_line (start -11.30 11.70) (end 11.30 11.70) (layer B.Cu) (width 0.20))
(fp_line (start 11.30 11.70) (end 11.30 -11.70) (layer B.Cu) (width 0.20))
(fp_line (start 11.30 -11.70) (end -11.70 -11.70) (layer B.Cu) (width 0.20))
(fp_line (start -11.70 -11.70) (end -11.70 12.10) (layer B.Cu) (width 0.20))
(fp_line (start -11.70 12.10) (end 11.70 12.10) (layer B.Cu) (width 0.20))
(fp_line (start 11.70 12.10) (end 11.70 -12.10) (layer B.Cu) (width 0.20))
(fp_line (start 11.70 -12.10) (end -12.10 -12.10) (layer B.Cu) (width 0.20))
(fp_line (start -12.10 -12.10) (end -12.10 12.50) (layer B.Cu) (width 0.20))
(fp_line (start -12.10 12.50) (end 12.10 12.50) (layer B.Cu) (width 0.20))
(fp_line (start 12.10 12.50) (end 12.10 -12.50) (layer B.Cu) (width 0.20))
(fp_line (start 12.10 -12.50) (end -12.50 -12.50) (layer B.Cu) (width 0.20))
(fp_line (start -12.50 -12.50) (end -12.50 12.90) (layer B.Cu) (width 0.20))
(fp_line (start -12.50 12.90) (end 12.50 12.90) (layer B.Cu) (width 0.20))
(fp_line (start 12.50 12.90) (end 12.50 -12.90) (layer B.Cu) (width 0.20))
(fp_line (start 12.50 -12.90) (end -12.90 -12.90) (layer B.Cu) (width 0.20))
(fp_line (start -12.90 -12.90) (end -12.90 13.30) (layer B.Cu) (width 0.20))
(fp_line (start -12.90 13.30) (end 12.90 13.30) (layer B.Cu) (width 0.20))
(fp_line (start 12.90 13.30) (end 12.90 -13.30) (layer B.Cu) (width 0.20))
(fp_line (start 12.90 -13.30) (end -13.30 -13.30) (layer B.Cu) (width 0.20))
(fp_line (start -13.30 -13.30) (end -13.30 13.70) (layer B.Cu) (width 0.20))
(fp_line (start -13.30 13.70) (end 13.30 13.70) (layer B.Cu) (width 0.20))
(fp_line (start 13.30 13.70) (end 13.30 -13.70) (layer B.Cu) (width 0.20))
(fp_line (start 13.30 -13.70) (end -13.70 -13.70) (layer B.Cu) (width 0.20))
(fp_line (start -13.70 -13.70) (end -13.70 14.10) (layer B.Cu) (width 0.20))
(fp_line (start -13.70 14.10) (end 13.70 14.10) (layer B.Cu) (width 0.20))
(fp_line (start 13.70 14.10) (end 13.70 -14.10) (layer B.Cu) (width 0.20))
(fp_line (start 13.70 -14.10) (end -14.10 -14.10) (layer B.Cu) (width 0.20))
(fp_line (start -14.10 -14.10) (end -14.10 14.50) (layer B.Cu) (width 0.20))
(fp_line (start -14.10 14.50) (end 14.10 14.50) (layer B.Cu) (width 0.20))
(fp_line (start 14.10 14.50) (end 14.10 -14.50) (layer B.Cu) (width 0.20))
(fp_line (start 14.10 -14.50) (end -14.50 -14.50) (layer B.Cu) (width 0.20))
(fp_line (start -14.50 -14.50) (end -14.50 14.90) (layer B.Cu) (width 0.20))
(fp_line (start -14.50 14.90) (end 14.50 14.90) (layer B.Cu) (width 0.20))
(fp_line (start 14.50 14.90) (end 14.50 -14.90) (layer B.Cu) (width 0.20))
(fp_line (start 14.50 -14.90) (end -14.90 -14.90) (layer B.Cu) (width 0.20))
(fp_line (start -14.90 -14.90) (end -14.90 15.30) (layer B.Cu) (width 0.20))
(fp_line (start -14.90 15.30) (end 14.50 15.30) (layer B.Cu) (width 0.20))
(pad 2 smd rect (at 14.50 15.30) (size 0.20 0.20) (layers B.Cu))
)
