(module SquareCoil15mil1L44mm (layer F.Cu) (tedit 55A681D4)
  (fp_text reference G*** (at 0 0) (layer F.SilkS) hide
    (effects (font (thickness 0.3)))
  )
  (fp_text value SquareCoil15mil1L44mm (at 0 -2.54) (layer F.SilkS) hide
    (effects (font (thickness 0.3)))
  )
  (fp_line (start 21.8 22.6) (end 21.8 -21.8) (layer F.Cu) (width 0.4))
  (fp_line (start 21.8 -21.8) (end -21.8 -21.8) (layer F.Cu) (width 0.4))
  (fp_line (start -21.8 -21.8) (end -21.8 21.8) (layer F.Cu) (width 0.4))
  (fp_line (start -21.8 21.8) (end 21 21.8) (layer F.Cu) (width 0.4))
  (fp_line (start 21 21.8) (end 21 -21) (layer F.Cu) (width 0.4))
  (fp_line (start 21 -21) (end -21 -21) (layer F.Cu) (width 0.4))
  (fp_line (start -21 -21) (end -21 21) (layer F.Cu) (width 0.4))
  (fp_line (start -21 21) (end 20.2 21) (layer F.Cu) (width 0.4))
  (fp_line (start 20.2 21) (end 20.2 -20.2) (layer F.Cu) (width 0.4))
  (fp_line (start 20.2 -20.2) (end -20.2 -20.2) (layer F.Cu) (width 0.4))
  (fp_line (start -20.2 -20.2) (end -20.2 20.2) (layer F.Cu) (width 0.4))
  (fp_line (start -20.2 20.2) (end 19.4 20.2) (layer F.Cu) (width 0.4))
  (fp_line (start 19.4 20.2) (end 19.4 -19.4) (layer F.Cu) (width 0.4))
  (fp_line (start 19.4 -19.4) (end -19.4 -19.4) (layer F.Cu) (width 0.4))
  (fp_line (start -19.4 -19.4) (end -19.4 19.4) (layer F.Cu) (width 0.4))
  (fp_line (start -19.4 19.4) (end 18.6 19.4) (layer F.Cu) (width 0.4))
  (fp_line (start 18.6 19.4) (end 18.6 -18.6) (layer F.Cu) (width 0.4))
  (fp_line (start 18.6 -18.6) (end -18.6 -18.6) (layer F.Cu) (width 0.4))
  (fp_line (start -18.6 -18.6) (end -18.6 18.6) (layer F.Cu) (width 0.4))
  (fp_line (start -18.6 18.6) (end 17.8 18.6) (layer F.Cu) (width 0.4))
  (fp_line (start 17.8 18.6) (end 17.8 -17.8) (layer F.Cu) (width 0.4))
  (fp_line (start 17.8 -17.8) (end -17.8 -17.8) (layer F.Cu) (width 0.4))
  (fp_line (start -17.8 -17.8) (end -17.8 17.8) (layer F.Cu) (width 0.4))
  (fp_line (start -17.8 17.8) (end 17 17.8) (layer F.Cu) (width 0.4))
  (fp_line (start 17 17.8) (end 17 -17) (layer F.Cu) (width 0.4))
  (fp_line (start 17 -17) (end -17 -17) (layer F.Cu) (width 0.4))
  (fp_line (start -17 -17) (end -17 17) (layer F.Cu) (width 0.4))
  (fp_line (start -17 17) (end 16.2 17) (layer F.Cu) (width 0.4))
  (fp_line (start 16.2 17) (end 16.2 -16.2) (layer F.Cu) (width 0.4))
  (fp_line (start 16.2 -16.2) (end -16.2 -16.2) (layer F.Cu) (width 0.4))
  (fp_line (start -16.2 -16.2) (end -16.2 16.2) (layer F.Cu) (width 0.4))
  (fp_line (start -16.2 16.2) (end 15.4 16.2) (layer F.Cu) (width 0.4))
  (fp_line (start 15.4 16.2) (end 15.4 -15.4) (layer F.Cu) (width 0.4))
  (fp_line (start 15.4 -15.4) (end -15.4 -15.4) (layer F.Cu) (width 0.4))
  (fp_line (start -15.4 -15.4) (end -15.4 15.4) (layer F.Cu) (width 0.4))
  (fp_line (start -15.4 15.4) (end 14.6 15.4) (layer F.Cu) (width 0.4))
  (fp_line (start 14.6 15.4) (end 14.6 -14.6) (layer F.Cu) (width 0.4))
  (fp_line (start 14.6 -14.6) (end -14.6 -14.6) (layer F.Cu) (width 0.4))
  (fp_line (start -14.6 -14.6) (end -14.6 14.6) (layer F.Cu) (width 0.4))
  (fp_line (start -14.6 14.6) (end 13.8 14.6) (layer F.Cu) (width 0.4))
  (fp_line (start 13.8 14.6) (end 13.8 -13.8) (layer F.Cu) (width 0.4))
  (fp_line (start 13.8 -13.8) (end -13.8 -13.8) (layer F.Cu) (width 0.4))
  (fp_line (start -13.8 -13.8) (end -13.8 13.8) (layer F.Cu) (width 0.4))
  (fp_line (start -13.8 13.8) (end 13 13.8) (layer F.Cu) (width 0.4))
  (fp_line (start 13 13.8) (end 13 -13) (layer F.Cu) (width 0.4))
  (fp_line (start 13 -13) (end -13 -13) (layer F.Cu) (width 0.4))
  (fp_line (start -13 -13) (end -13 13) (layer F.Cu) (width 0.4))
  (fp_line (start -13 13) (end 12.2 13) (layer F.Cu) (width 0.4))
  (fp_line (start 12.2 13) (end 12.2 -12.2) (layer F.Cu) (width 0.4))
  (fp_line (start 12.2 -12.2) (end -12.2 -12.2) (layer F.Cu) (width 0.4))
  (fp_line (start -12.2 -12.2) (end -12.2 12.2) (layer F.Cu) (width 0.4))
  (fp_line (start -12.2 12.2) (end 11.4 12.2) (layer F.Cu) (width 0.4))
  (fp_line (start 11.4 12.2) (end 11.4 -11.4) (layer F.Cu) (width 0.4))
  (fp_line (start 11.4 -11.4) (end -11.4 -11.4) (layer F.Cu) (width 0.4))
  (fp_line (start -11.4 -11.4) (end -11.4 11.4) (layer F.Cu) (width 0.4))
  (fp_line (start -11.4 11.4) (end 10.6 11.4) (layer F.Cu) (width 0.4))
  (fp_line (start 10.6 11.4) (end 10.6 -10.6) (layer F.Cu) (width 0.4))
  (fp_line (start 10.6 -10.6) (end -10.6 -10.6) (layer F.Cu) (width 0.4))
  (fp_line (start -10.6 -10.6) (end -10.6 10.6) (layer F.Cu) (width 0.4))
  (fp_line (start -10.6 10.6) (end 9.8 10.6) (layer F.Cu) (width 0.4))
  (fp_line (start 9.8 10.6) (end 9.8 -9.8) (layer F.Cu) (width 0.4))
  (fp_line (start 9.8 -9.8) (end -9.8 -9.8) (layer F.Cu) (width 0.4))
  (fp_line (start -9.8 -9.8) (end -9.8 9.8) (layer F.Cu) (width 0.4))
  (fp_line (start -9.8 9.8) (end 9 9.8) (layer F.Cu) (width 0.4))
  (fp_line (start 9 9.8) (end 9 -9) (layer F.Cu) (width 0.4))
  (fp_line (start 9 -9) (end -9 -9) (layer F.Cu) (width 0.4))
  (fp_line (start -9 -9) (end -9 9) (layer F.Cu) (width 0.4))
  (fp_line (start -9 9) (end 8.2 9) (layer F.Cu) (width 0.4))
  (fp_line (start 8.2 9) (end 8.2 -8.2) (layer F.Cu) (width 0.4))
  (fp_line (start 8.2 -8.2) (end -8.2 -8.2) (layer F.Cu) (width 0.4))
  (fp_line (start -8.2 -8.2) (end -8.2 8.2) (layer F.Cu) (width 0.4))
  (fp_line (start -8.2 8.2) (end 7.4 8.2) (layer F.Cu) (width 0.4))
  (fp_line (start 7.4 8.2) (end 7.4 -7.4) (layer F.Cu) (width 0.4))
  (fp_line (start 7.4 -7.4) (end -7.4 -7.4) (layer F.Cu) (width 0.4))
  (fp_line (start -7.4 -7.4) (end -7.4 7.4) (layer F.Cu) (width 0.4))
  (fp_line (start -7.4 7.4) (end 6.6 7.4) (layer F.Cu) (width 0.4))
  (fp_line (start 6.6 7.4) (end 6.6 -6.6) (layer F.Cu) (width 0.4))
  (fp_line (start 6.6 -6.6) (end -6.6 -6.6) (layer F.Cu) (width 0.4))
  (fp_line (start -6.6 -6.6) (end -6.6 6.6) (layer F.Cu) (width 0.4))
  (fp_line (start -6.6 6.6) (end 5.8 6.6) (layer F.Cu) (width 0.4))
  (fp_line (start 5.8 6.6) (end 5.8 -5.8) (layer F.Cu) (width 0.4))
  (fp_line (start 5.8 -5.8) (end -5.8 -5.8) (layer F.Cu) (width 0.4))
  (fp_line (start -5.8 -5.8) (end -5.8 5.8) (layer F.Cu) (width 0.4))
  (fp_line (start -5.8 5.8) (end 5 5.8) (layer F.Cu) (width 0.4))
  (fp_line (start 5 5.8) (end 5 -5) (layer F.Cu) (width 0.4))
  (fp_line (start 5 -5) (end -5 -5) (layer F.Cu) (width 0.4))
  (fp_line (start -5 -5) (end -5 5) (layer F.Cu) (width 0.4))
  (fp_line (start -5 5) (end 4.2 5) (layer F.Cu) (width 0.4))
  (fp_line (start 4.2 5) (end 4.2 -4.2) (layer F.Cu) (width 0.4))
  (fp_line (start 4.2 -4.2) (end -4.2 -4.2) (layer F.Cu) (width 0.4))
  (fp_line (start -4.2 -4.2) (end -4.2 4.2) (layer F.Cu) (width 0.4))
  (fp_line (start -4.2 4.2) (end 3.4 4.2) (layer F.Cu) (width 0.4))
  (fp_line (start 3.4 4.2) (end 3.4 -3.4) (layer F.Cu) (width 0.4))
  (fp_line (start 3.4 -3.4) (end -3.4 -3.4) (layer F.Cu) (width 0.4))
  (fp_line (start -3.4 -3.4) (end -3.4 3.4) (layer F.Cu) (width 0.4))
  (fp_line (start -3.4 3.4) (end 2.6 3.4) (layer F.Cu) (width 0.4))
  (fp_line (start 2.6 3.4) (end 2.6 -2.6) (layer F.Cu) (width 0.4))
  (fp_line (start 2.6 -2.6) (end -2.6 -2.6) (layer F.Cu) (width 0.4))
  (fp_line (start -2.6 -2.6) (end -2.6 2.6) (layer F.Cu) (width 0.4))
  (fp_line (start -2.6 2.6) (end 1.8 2.6) (layer F.Cu) (width 0.4))
  (fp_line (start 1.8 2.6) (end 1.8 -1.8) (layer F.Cu) (width 0.4))
  (fp_line (start 1.8 -1.8) (end -1.8 -1.8) (layer F.Cu) (width 0.4))
  (fp_line (start -1.8 -1.8) (end -1.8 1.8) (layer F.Cu) (width 0.4))
  (fp_line (start -1.8 1.8) (end 1 1.8) (layer F.Cu) (width 0.4))
  (fp_line (start 1 1.8) (end 1 -1) (layer F.Cu) (width 0.4))
  (fp_line (start 1 -1) (end -1 -1) (layer F.Cu) (width 0.4))
  (fp_line (start -1 -1) (end -1 1) (layer F.Cu) (width 0.4))
  (fp_line (start -1 1) (end 0.2 1) (layer F.Cu) (width 0.4))
  (pad 1 smd rect (at 21.8 22.6) (size 0.4 0.4) (layers F.Cu))
  (pad 2 smd rect (at 0.2 1) (size 0.4 0.4) (layers F.Cu))
)
