(module SquareCoil10mil8Turns45mm (layer F.Cu) (tedit 55A681D4)
  (fp_text reference G*** (at 0 0) (layer F.SilkS) hide
    (effects (font (thickness 0.3)))
  )
  (fp_text value SquareCoil10mil8Turns45mm (at 0 -2.54) (layer F.SilkS) hide
    (effects (font (thickness 0.3)))
  )
  (fp_line (start 22.38 22.88) (end 22.38 -22.38) (layer F.Cu) (width 0.25))
  (fp_line (start 22.38 -22.38) (end -22.38 -22.38) (layer F.Cu) (width 0.25))
  (fp_line (start -22.38 -22.38) (end -22.38 22.38) (layer F.Cu) (width 0.25))
  (fp_line (start -22.38 22.38) (end 21.88 22.38) (layer F.Cu) (width 0.25))
  (fp_line (start 21.88 22.38) (end 21.88 -21.88) (layer F.Cu) (width 0.25))
  (fp_line (start 21.88 -21.88) (end -21.88 -21.88) (layer F.Cu) (width 0.25))
  (fp_line (start -21.88 -21.88) (end -21.88 21.88) (layer F.Cu) (width 0.25))
  (fp_line (start -21.88 21.88) (end 21.38 21.88) (layer F.Cu) (width 0.25))
  (fp_line (start 21.38 21.88) (end 21.38 -21.38) (layer F.Cu) (width 0.25))
  (fp_line (start 21.38 -21.38) (end -21.38 -21.38) (layer F.Cu) (width 0.25))
  (fp_line (start -21.38 -21.38) (end -21.38 21.38) (layer F.Cu) (width 0.25))
  (fp_line (start -21.38 21.38) (end 20.88 21.38) (layer F.Cu) (width 0.25))
  (fp_line (start 20.88 21.38) (end 20.88 -20.88) (layer F.Cu) (width 0.25))
  (fp_line (start 20.88 -20.88) (end -20.88 -20.88) (layer F.Cu) (width 0.25))
  (fp_line (start -20.88 -20.88) (end -20.88 20.88) (layer F.Cu) (width 0.25))
  (fp_line (start -20.88 20.88) (end 20.38 20.88) (layer F.Cu) (width 0.25))
  (fp_line (start 20.38 20.88) (end 20.38 -20.38) (layer F.Cu) (width 0.25))
  (fp_line (start 20.38 -20.38) (end -20.38 -20.38) (layer F.Cu) (width 0.25))
  (fp_line (start -20.38 -20.38) (end -20.38 20.38) (layer F.Cu) (width 0.25))
  (fp_line (start -20.38 20.38) (end 19.88 20.38) (layer F.Cu) (width 0.25))
  (fp_line (start 19.88 20.38) (end 19.88 -19.88) (layer F.Cu) (width 0.25))
  (fp_line (start 19.88 -19.88) (end -19.88 -19.88) (layer F.Cu) (width 0.25))
  (fp_line (start -19.88 -19.88) (end -19.88 19.88) (layer F.Cu) (width 0.25))
  (fp_line (start -19.88 19.88) (end 19.38 19.88) (layer F.Cu) (width 0.25))
  (fp_line (start 19.38 19.88) (end 19.38 -19.38) (layer F.Cu) (width 0.25))
  (fp_line (start 19.38 -19.38) (end -19.38 -19.38) (layer F.Cu) (width 0.25))
  (fp_line (start -19.38 -19.38) (end -19.38 19.38) (layer F.Cu) (width 0.25))
  (fp_line (start -19.38 19.38) (end 18.88 19.38) (layer F.Cu) (width 0.25))
  (fp_line (start 18.88 19.38) (end 18.88 -18.88) (layer F.Cu) (width 0.25))
  (fp_line (start 18.88 -18.88) (end -18.88 -18.88) (layer F.Cu) (width 0.25))
  (fp_line (start -18.88 -18.88) (end -18.88 18.88) (layer F.Cu) (width 0.25))
  (fp_line (start -18.88 18.88) (end 18.38 18.88) (layer F.Cu) (width 0.25))
  (pad 1 smd rect (at 22.38 22.88) (size 0.25 0.25) (layers F.Cu))
  (pad 2 smd rect (at 18.38 18.88) (size 0.25 0.25) (layers F.Cu))
)
