# Snatched from https://github.com/madworm/Panelization.pretty
(module mouse-bite-2.54mm-slot (layer F.Cu) (tedit 551DB929)
  (fp_text reference mouse-bite-2.54mm-slot (at 0 -2) (layer F.SilkS) hide
    (effects (font (size 1 1) (thickness 0.2)))
  )
  (fp_text value VAL** (at 0 2.1) (layer F.SilkS) hide
    (effects (font (size 1 1) (thickness 0.2)))
  )
  (fp_line (start -2.33 0) (end -2.33 0) (layer Eco1.User) (width 2.54))
  (fp_line (start 2.33 0) (end 2.33 0) (layer Eco1.User) (width 2.54))
  (fp_arc (start 2.33 0) (end 2.33 1.27) (angle 180) (layer F.SilkS) (width 0.1))
  (fp_circle (center 2.33 0) (end 2.33 -0.06) (layer Dwgs.User) (width 0.05))
  (fp_circle (center -2.33 0) (end -2.27 0) (layer Dwgs.User) (width 0.05))
  (fp_arc (start -2.33 0) (end -2.33 1.27) (angle -180) (layer F.SilkS) (width 0.1))
  (pad "" np_thru_hole circle (at 0 -1.1) (size 0.5 0.5) (drill 0.5) (layers *.Cu *.Mask))
  (pad "" np_thru_hole circle (at 0 1.1) (size 0.5 0.5) (drill 0.5) (layers *.Cu *.Mask))
  (pad "" np_thru_hole circle (at 0.8 -1.1) (size 0.5 0.5) (drill 0.5) (layers *.Cu *.Mask))
  (pad "" np_thru_hole circle (at -0.8 -1.1) (size 0.5 0.5) (drill 0.5) (layers *.Cu *.Mask))
  (pad "" np_thru_hole circle (at -0.8 1.1) (size 0.5 0.5) (drill 0.5) (layers *.Cu *.Mask))
  (pad "" np_thru_hole circle (at 0.8 1.1) (size 0.5 0.5) (drill 0.5) (layers *.Cu *.Mask))
)
